# ProBuilder 5.0.4
# https://unity3d.com/unity/features/worldbuilding/probuilder
# 5/22/2022 3:31:55 PM

mtllib ./hex_pillar.mtl
o hex pillar

g Cylinder
v -0.75 5 1.299038
v -1.5 -2.384186E-07 0
v -1.5 5 0
v -0.75 -2.384186E-07 1.299038
v 0.7500001 5 1.299038
v 0.7500001 -2.384186E-07 1.299038
v 1.5 5 0
v 1.5 -2.384186E-07 0
v 0.7499999 5 -1.299038
v 0.7499999 -2.384186E-07 -1.299038
v -0.75 5 -1.299038
v -0.75 -2.384186E-07 -1.299038
v 0 5 0
v 0 -2.384186E-07 0

vt -1.299038 5.0001
vt -2.799038 9.989738E-05
vt -2.799038 5.0001
vt -1.299038 9.989738E-05
vt -0.7499999 5.0001
vt -2.25 9.989738E-05
vt -2.25 5.0001
vt -0.7499999 9.989738E-05
vt 1.299038 5.0001
vt -0.2009618 9.989738E-05
vt -0.2009618 5.0001
vt 1.299038 9.989738E-05
vt 2.799038 5.0001
vt 2.799038 9.989738E-05
vt 2.25 5.0001
vt 0.7500001 9.989738E-05
vt 0.7500001 5.0001
vt 2.25 9.989738E-05
vt 0.2009619 5.0001
vt 0.2009619 9.989738E-05
vt 2.25 -2.799038
vt 0.7500001 -2.799038
vt 1.5 -1.5
vt 3 -1.5
vt 0 -1.5
vt 2.25 -0.2009618
vt 0.7499999 -0.2009619
vt -0.7500001 -2.799038
vt -2.25 -2.799038
vt -1.5 -1.5
vt -3 -1.5
vt -0.7499999 -0.2009619
vt -2.25 -0.2009618

vn -0.8660254 0 0.5
vn 7.947285E-08 0 1
vn 0.8660254 0 0.5
vn 0.8660253 0 -0.5000001
vn 0 0 -1
vn -0.8660254 0 -0.5000001
vn 0 1 0
vn 0 -1 0

usemtl Pillar
f 4/4/1 1/1/1 3/3/1 2/2/1
f 6/8/2 5/5/2 1/7/2 4/6/2
f 8/12/3 7/9/3 5/11/3 6/10/3
f 10/14/4 9/13/4 7/9/4 8/12/4
f 12/18/5 11/15/5 9/17/5 10/16/5
f 2/20/6 3/19/6 11/1/6 12/4/6
f 13/23/7 7/25/7 9/22/7 11/21/7
f 1/26/7 13/23/7 11/21/7 3/24/7
f 13/23/7 1/26/7 5/27/7 7/25/7
f 14/30/8 2/31/8 12/29/8 10/28/8
f 6/32/8 14/30/8 10/28/8 8/25/8
f 14/30/8 6/32/8 4/33/8 2/31/8

