%YAML 1.1
%TAG !u! tag:unity3d.com,2011:
--- !u!74 &7400000
AnimationClip:
  m_ObjectHideFlags: 0
  m_CorrespondingSourceObject: {fileID: 0}
  m_PrefabInstance: {fileID: 0}
  m_PrefabAsset: {fileID: 0}
  m_Name: Death
  serializedVersion: 6
  m_Legacy: 0
  m_Compressed: 0
  m_UseHighQualityCurve: 1
  m_RotationCurves:
  - curve:
      serializedVersion: 2
      m_Curve:
      - serializedVersion: 3
        time: 0
        value: {x: -0.7071068, y: 0, z: -0, w: 0.7071067}
        inSlope: {x: 0, y: 0, z: 0, w: 0}
        outSlope: {x: 0, y: 0, z: 0, w: 0}
        tangentMode: 0
        weightedMode: 0
        inWeight: {x: 0.33333334, y: 0.33333334, z: 0.33333334, w: 0.33333334}
        outWeight: {x: 0.33333334, y: 0.33333334, z: 0.33333334, w: 0.33333334}
      - serializedVersion: 3
        time: 0.45833334
        value: {x: -0.7071068, y: 0, z: -0, w: 0.7071067}
        inSlope: {x: 0, y: 0, z: 0, w: 0}
        outSlope: {x: 0, y: 0, z: 0, w: 0}
        tangentMode: 0
        weightedMode: 0
        inWeight: {x: 0.33333334, y: 0.33333334, z: 0.33333334, w: 0.33333334}
        outWeight: {x: 0.33333334, y: 0.33333334, z: 0.33333334, w: 0.33333334}
      m_PreInfinity: 2
      m_PostInfinity: 2
      m_RotationOrder: 4
    path: MonsterArmature
  - curve:
      serializedVersion: 2
      m_Curve:
      - serializedVersion: 3
        time: 0
        value: {x: 0.7071068, y: 0, z: -0, w: 0.7071067}
        inSlope: {x: 0.014925957, y: 2.5021595e-17, z: -3.1283947e-16, w: -0.014938831}
        outSlope: {x: 0.014925957, y: 2.5021595e-17, z: -3.1283947e-16, w: -0.014938831}
        tangentMode: 0
        weightedMode: 0
        inWeight: {x: 0.33333334, y: 0.33333334, z: 0.33333334, w: 0.33333334}
        outWeight: {x: 0.33333334, y: 0.33333334, z: 0.33333334, w: 0.33333334}
      - serializedVersion: 3
        time: 0.16666667
        value: {x: 0.7236546, y: 2.9802385e-18, z: -5.222145e-17, w: 0.6901623}
        inSlope: {x: 0.33145875, y: -9.60365e-18, z: -3.1464728e-16, w: -0.35247654}
        outSlope: {x: 0.33145875, y: -9.60365e-18, z: -3.1464728e-16, w: -0.35247654}
        tangentMode: 0
        weightedMode: 0
        inWeight: {x: 0.33333334, y: 0.33333334, z: 0.33333334, w: 0.33333334}
        outWeight: {x: 0.33333334, y: 0.33333334, z: 0.33333334, w: 0.33333334}
      - serializedVersion: 3
        time: 0.20833334
        value: {x: 0.7421562, y: 1.9486996e-18, z: -6.535399e-17, w: 0.67022705}
        inSlope: {x: -0.7170756, y: 9.568516e-17, z: -3.0563717e-16, w: 0.6919265}
        outSlope: {x: -0.7170756, y: 9.568516e-17, z: -3.0563717e-16, w: 0.6919265}
        tangentMode: 0
        weightedMode: 0
        inWeight: {x: 0.33333334, y: 0.33333334, z: 0.33333334, w: 0.33333334}
        outWeight: {x: 0.33333334, y: 0.33333334, z: 0.33333334, w: 0.33333334}
      - serializedVersion: 3
        time: 0.25
        value: {x: 0.66389835, y: 1.0954e-17, z: -7.769121e-17, w: 0.7478228}
        inSlope: {x: -2.7148633, y: 3.2632688e-16, z: -2.5703072e-16, w: 2.2369342}
        outSlope: {x: -2.7148633, y: 3.2632688e-16, z: -2.5703072e-16, w: 2.2369342}
        tangentMode: 0
        weightedMode: 0
        inWeight: {x: 0.33333334, y: 0.33333334, z: 0.33333334, w: 0.33333334}
        outWeight: {x: 0.33333334, y: 0.33333334, z: 0.33333334, w: 0.33333334}
      - serializedVersion: 3
        time: 0.2916667
        value: {x: 0.51591754, y: 2.9142612e-17, z: -8.677322e-17, w: 0.85663825}
        inSlope: {x: -3.3221757, y: 4.3558455e-16, z: -1.8770022e-16, w: 2.0908294}
        outSlope: {x: -3.3221757, y: 4.3558455e-16, z: -1.8770022e-16, w: 2.0908294}
        tangentMode: 0
        weightedMode: 0
        inWeight: {x: 0.33333334, y: 0.33333334, z: 0.33333334, w: 0.33333334}
        outWeight: {x: 0.33333334, y: 0.33333334, z: 0.33333334, w: 0.33333334}
      - serializedVersion: 3
        time: 0.33333334
        value: {x: 0.38705033, y: 4.7252716e-17, z: -9.33329e-17, w: 0.92205864}
        inSlope: {x: -3.3606706, y: 4.800214e-16, z: -1.0155123e-16, w: 1.3817806}
        outSlope: {x: -3.3606706, y: 4.800214e-16, z: -1.0155123e-16, w: 1.3817806}
        tangentMode: 0
        weightedMode: 0
        inWeight: {x: 0.33333334, y: 0.33333334, z: 0.33333334, w: 0.33333334}
        outWeight: {x: 0.33333334, y: 0.33333334, z: 0.33333334, w: 0.33333334}
      - serializedVersion: 3
        time: 0.375
        value: {x: 0.23586173, y: 6.9144385e-17, z: -9.523582e-17, w: 0.9717866}
        inSlope: {x: -3.208372, y: 4.981235e-16, z: -3.2310786e-17, w: 0.8490379}
        outSlope: {x: -3.208372, y: 4.981235e-16, z: -3.2310786e-17, w: 0.8490379}
        tangentMode: 0
        weightedMode: 0
        inWeight: {x: 0.33333334, y: 0.33333334, z: 0.33333334, w: 0.33333334}
        outWeight: {x: 0.33333334, y: 0.33333334, z: 0.33333334, w: 0.33333334}
      - serializedVersion: 3
        time: 0.4166667
        value: {x: 0.119685955, y: 8.876301e-17, z: -9.6025465e-17, w: 0.9928118}
        inSlope: {x: -1.8630835, y: 3.9081285e-16, z: -7.7715624e-17, w: 0.29951394}
        outSlope: {x: -1.8630835, y: 3.9081285e-16, z: -7.7715624e-17, w: 0.29951394}
        tangentMode: 0
        weightedMode: 0
        inWeight: {x: 0.33333334, y: 0.33333334, z: 0.33333334, w: 0.33333334}
        outWeight: {x: 0.33333334, y: 0.33333334, z: 0.33333334, w: 0.33333334}
      - serializedVersion: 3
        time: 0.45833334
        value: {x: 0.08060473, y: 1.01712127e-16, z: -1.0171212e-16, w: 0.9967461}
        inSlope: {x: -0.9379496, y: 3.1077885e-16, z: -1.3647975e-16, w: 0.09442379}
        outSlope: {x: -0.9379496, y: 3.1077885e-16, z: -1.3647975e-16, w: 0.09442379}
        tangentMode: 0
        weightedMode: 0
        inWeight: {x: 0.33333334, y: 0.33333334, z: 0.33333334, w: 0.33333334}
        outWeight: {x: 0.33333334, y: 0.33333334, z: 0.33333334, w: 0.33333334}
      m_PreInfinity: 2
      m_PostInfinity: 2
      m_RotationOrder: 4
    path: MonsterArmature/Body
  - curve:
      serializedVersion: 2
      m_Curve:
      - serializedVersion: 3
        time: 0
        value: {x: 0, y: 0, z: -0, w: 1}
        inSlope: {x: 0, y: 0, z: 0, w: 0}
        outSlope: {x: 0, y: 0, z: 0, w: 0}
        tangentMode: 0
        weightedMode: 0
        inWeight: {x: 0.33333334, y: 0.33333334, z: 0.33333334, w: 0.33333334}
        outWeight: {x: 0.33333334, y: 0.33333334, z: 0.33333334, w: 0.33333334}
      - serializedVersion: 3
        time: 0.45833334
        value: {x: 0, y: 0, z: -0, w: 1}
        inSlope: {x: 0, y: 0, z: 0, w: 0}
        outSlope: {x: 0, y: 0, z: 0, w: 0}
        tangentMode: 0
        weightedMode: 0
        inWeight: {x: 0.33333334, y: 0.33333334, z: 0.33333334, w: 0.33333334}
        outWeight: {x: 0.33333334, y: 0.33333334, z: 0.33333334, w: 0.33333334}
      m_PreInfinity: 2
      m_PostInfinity: 2
      m_RotationOrder: 4
    path: MonsterArmature/Body/Mouth
  - curve:
      serializedVersion: 2
      m_Curve:
      - serializedVersion: 3
        time: 0
        value: {x: 0.7071068, y: 0, z: -0, w: 0.7071067}
        inSlope: {x: 0.037987232, y: 0.05104357, z: -0.05487593, w: -0.03823757}
        outSlope: {x: 0.037987232, y: 0.05104357, z: -0.05487593, w: -0.03823757}
        tangentMode: 0
        weightedMode: 0
        inWeight: {x: 0.33333334, y: 0.33333334, z: 0.33333334, w: 0.33333334}
        outWeight: {x: 0.33333334, y: 0.33333334, z: 0.33333334, w: 0.33333334}
      - serializedVersion: 3
        time: 0.083333336
        value: {x: 0.71534836, y: 0.011225834, z: -0.012082915, w: 0.69857335}
        inSlope: {x: 0.3121047, y: 0.444035, z: -0.4829457, w: -0.35502937}
        outSlope: {x: 0.3121047, y: 0.444035, z: -0.4829457, w: -0.35502937}
        tangentMode: 0
        weightedMode: 0
        inWeight: {x: 0.33333334, y: 0.33333334, z: 0.33333334, w: 0.33333334}
        outWeight: {x: 0.33333334, y: 0.33333334, z: 0.33333334, w: 0.33333334}
      - serializedVersion: 3
        time: 0.125
        value: {x: 0.73469836, y: 0.03912973, z: -0.04253197, w: 0.6759277}
        inSlope: {x: 0.00024466217, y: -0.095020324, z: 0.030164838, w: 0.0012051463}
        outSlope: {x: 0.00024466217, y: -0.095020324, z: 0.030164838, w: 0.0012051463}
        tangentMode: 0
        weightedMode: 0
        inWeight: {x: 0.33333334, y: 0.33333334, z: 0.33333334, w: 0.33333334}
        outWeight: {x: 0.33333334, y: 0.33333334, z: 0.33333334, w: 0.33333334}
      - serializedVersion: 3
        time: 0.20833334
        value: {x: 0.65881836, y: -0.03224046, z: 0.024130605, w: 0.7512235}
        inSlope: {x: -1.6162457, y: -0.23222946, z: 0.2589379, w: 1.382523}
        outSlope: {x: -1.6162457, y: -0.23222946, z: 0.2589379, w: 1.382523}
        tangentMode: 0
        weightedMode: 0
        inWeight: {x: 0.33333334, y: 0.33333334, z: 0.33333334, w: 0.33333334}
        outWeight: {x: 0.33333334, y: 0.33333334, z: 0.33333334, w: 0.33333334}
      - serializedVersion: 3
        time: 0.25
        value: {x: 0.5806816, y: -0.016044993, z: 0.012008991, w: 0.813884}
        inSlope: {x: -2.116916, y: 0.3868855, z: -0.28956723, w: 1.4966731}
        outSlope: {x: -2.116916, y: 0.3868855, z: -0.28956723, w: 1.4966731}
        tangentMode: 0
        weightedMode: 0
        inWeight: {x: 0.33333334, y: 0.33333334, z: 0.33333334, w: 0.33333334}
        outWeight: {x: 0.33333334, y: 0.33333334, z: 0.33333334, w: 0.33333334}
      - serializedVersion: 3
        time: 0.2916667
        value: {x: 0.48240867, y: 4.369145e-17, z: -4.369146e-17, w: 0.8759463}
        inSlope: {x: -2.6583033, y: 0.19253983, z: -0.14410782, w: 1.4327207}
        outSlope: {x: -2.6583033, y: 0.19253983, z: -0.14410782, w: 1.4327207}
        tangentMode: 0
        weightedMode: 0
        inWeight: {x: 0.33333334, y: 0.33333334, z: 0.33333334, w: 0.33333334}
        outWeight: {x: 0.33333334, y: 0.33333334, z: 0.33333334, w: 0.33333334}
      - serializedVersion: 3
        time: 0.33333334
        value: {x: 0.35915634, y: 5.3366077e-17, z: -6.241682e-17, w: 0.9332774}
        inSlope: {x: -3.3910255, y: 3.300572e-16, z: -3.967174e-16, w: 1.2466288}
        outSlope: {x: -3.3910255, y: 3.300572e-16, z: -3.967174e-16, w: 1.2466288}
        tangentMode: 0
        weightedMode: 0
        inWeight: {x: 0.33333334, y: 0.33333334, z: 0.33333334, w: 0.33333334}
        outWeight: {x: 0.33333334, y: 0.33333334, z: 0.33333334, w: 0.33333334}
      - serializedVersion: 3
        time: 0.375
        value: {x: 0.19982328, y: 7.119621e-17, z: -7.675124e-17, w: 0.979832}
        inSlope: {x: -3.4470983, y: 4.60723e-16, z: -3.2736638e-16, w: 0.7696152}
        outSlope: {x: -3.4470983, y: 4.60723e-16, z: -3.2736638e-16, w: 0.7696152}
        tangentMode: 0
        weightedMode: 0
        inWeight: {x: 0.33333334, y: 0.33333334, z: 0.33333334, w: 0.33333334}
        outWeight: {x: 0.33333334, y: 0.33333334, z: 0.33333334, w: 0.33333334}
      - serializedVersion: 3
        time: 0.4166667
        value: {x: 0.07189812, y: 9.175966e-17, z: -8.9697355e-17, w: 0.997412}
        inSlope: {x: -2.0592587, y: 4.3978814e-16, z: -3.7312786e-16, w: 0.23723735}
        outSlope: {x: -2.0592587, y: 4.3978814e-16, z: -3.7312786e-16, w: 0.23723735}
        tangentMode: 0
        weightedMode: 0
        inWeight: {x: 0.33333334, y: 0.33333334, z: 0.33333334, w: 0.33333334}
        outWeight: {x: 0.33333334, y: 0.33333334, z: 0.33333334, w: 0.33333334}
      - serializedVersion: 3
        time: 0.45833334
        value: {x: 0.02821833, y: 1.0784523e-16, z: -1.0784523e-16, w: 0.9996018}
        inSlope: {x: -1.0483152, y: 3.8605366e-16, z: -4.3554905e-16, w: 0.05255414}
        outSlope: {x: -1.0483152, y: 3.8605366e-16, z: -4.3554905e-16, w: 0.05255414}
        tangentMode: 0
        weightedMode: 0
        inWeight: {x: 0.33333334, y: 0.33333334, z: 0.33333334, w: 0.33333334}
        outWeight: {x: 0.33333334, y: 0.33333334, z: 0.33333334, w: 0.33333334}
      m_PreInfinity: 2
      m_PostInfinity: 2
      m_RotationOrder: 4
    path: MonsterArmature/Head
  - curve:
      serializedVersion: 2
      m_Curve:
      - serializedVersion: 3
        time: 0
        value: {x: 0, y: 0, z: -0, w: 1}
        inSlope: {x: 0, y: 0, z: 0, w: 0}
        outSlope: {x: 0, y: 0, z: 0, w: 0}
        tangentMode: 0
        weightedMode: 0
        inWeight: {x: 0.33333334, y: 0.33333334, z: 0.33333334, w: 0.33333334}
        outWeight: {x: 0.33333334, y: 0.33333334, z: 0.33333334, w: 0.33333334}
      - serializedVersion: 3
        time: 0.45833334
        value: {x: 0, y: 0, z: -0, w: 1}
        inSlope: {x: 0, y: 0, z: 0, w: 0}
        outSlope: {x: 0, y: 0, z: 0, w: 0}
        tangentMode: 0
        weightedMode: 0
        inWeight: {x: 0.33333334, y: 0.33333334, z: 0.33333334, w: 0.33333334}
        outWeight: {x: 0.33333334, y: 0.33333334, z: 0.33333334, w: 0.33333334}
      m_PreInfinity: 2
      m_PostInfinity: 2
      m_RotationOrder: 4
    path: MonsterArmature/Head/Head2
  - curve:
      serializedVersion: 2
      m_Curve:
      - serializedVersion: 3
        time: 0
        value: {x: 1.9476896e-19, y: -3.5471487e-10, z: 0.0026400527, w: 0.99999654}
        inSlope: {x: 0, y: 0, z: 0, w: 0}
        outSlope: {x: 0, y: 0, z: 0, w: 0}
        tangentMode: 0
        weightedMode: 0
        inWeight: {x: 0.33333334, y: 0.33333334, z: 0.33333334, w: 0.33333334}
        outWeight: {x: 0.33333334, y: 0.33333334, z: 0.33333334, w: 0.33333334}
      - serializedVersion: 3
        time: 0.45833334
        value: {x: 1.9476896e-19, y: -3.5471487e-10, z: 0.0026400527, w: 0.99999654}
        inSlope: {x: 0, y: 0, z: 0, w: 0}
        outSlope: {x: 0, y: 0, z: 0, w: 0}
        tangentMode: 0
        weightedMode: 0
        inWeight: {x: 0.33333334, y: 0.33333334, z: 0.33333334, w: 0.33333334}
        outWeight: {x: 0.33333334, y: 0.33333334, z: 0.33333334, w: 0.33333334}
      m_PreInfinity: 2
      m_PostInfinity: 2
      m_RotationOrder: 4
    path: MonsterArmature/Head/Head2/Head3
  - curve:
      serializedVersion: 2
      m_Curve:
      - serializedVersion: 3
        time: 0
        value: {x: 0, y: 0, z: -0, w: 1}
        inSlope: {x: 0, y: 0, z: 0, w: 0}
        outSlope: {x: 0, y: 0, z: 0, w: 0}
        tangentMode: 0
        weightedMode: 0
        inWeight: {x: 0.33333334, y: 0.33333334, z: 0.33333334, w: 0.33333334}
        outWeight: {x: 0.33333334, y: 0.33333334, z: 0.33333334, w: 0.33333334}
      - serializedVersion: 3
        time: 0.45833334
        value: {x: 0, y: 0, z: -0, w: 1}
        inSlope: {x: 0, y: 0, z: 0, w: 0}
        outSlope: {x: 0, y: 0, z: 0, w: 0}
        tangentMode: 0
        weightedMode: 0
        inWeight: {x: 0.33333334, y: 0.33333334, z: 0.33333334, w: 0.33333334}
        outWeight: {x: 0.33333334, y: 0.33333334, z: 0.33333334, w: 0.33333334}
      m_PreInfinity: 2
      m_PostInfinity: 2
      m_RotationOrder: 4
    path: MonsterArmature/Head/Eyebrow.R
  - curve:
      serializedVersion: 2
      m_Curve:
      - serializedVersion: 3
        time: 0
        value: {x: 0, y: 0, z: -0, w: 1}
        inSlope: {x: 0, y: 0, z: 0, w: 0}
        outSlope: {x: 0, y: 0, z: 0, w: 0}
        tangentMode: 0
        weightedMode: 0
        inWeight: {x: 0.33333334, y: 0.33333334, z: 0.33333334, w: 0.33333334}
        outWeight: {x: 0.33333334, y: 0.33333334, z: 0.33333334, w: 0.33333334}
      - serializedVersion: 3
        time: 0.45833334
        value: {x: 0, y: 0, z: -0, w: 1}
        inSlope: {x: 0, y: 0, z: 0, w: 0}
        outSlope: {x: 0, y: 0, z: 0, w: 0}
        tangentMode: 0
        weightedMode: 0
        inWeight: {x: 0.33333334, y: 0.33333334, z: 0.33333334, w: 0.33333334}
        outWeight: {x: 0.33333334, y: 0.33333334, z: 0.33333334, w: 0.33333334}
      m_PreInfinity: 2
      m_PostInfinity: 2
      m_RotationOrder: 4
    path: MonsterArmature/Head/Eyebrow.L
  m_CompressedRotationCurves: []
  m_EulerCurves: []
  m_PositionCurves:
  - curve:
      serializedVersion: 2
      m_Curve:
      - serializedVersion: 3
        time: 0
        value: {x: -0, y: 0, z: 0}
        inSlope: {x: 0, y: 0, z: 0}
        outSlope: {x: 0, y: 0, z: 0}
        tangentMode: 0
        weightedMode: 0
        inWeight: {x: 0.33333334, y: 0.33333334, z: 0.33333334}
        outWeight: {x: 0.33333334, y: 0.33333334, z: 0.33333334}
      - serializedVersion: 3
        time: 0.45833334
        value: {x: -0, y: 0, z: 0}
        inSlope: {x: 0, y: 0, z: 0}
        outSlope: {x: 0, y: 0, z: 0}
        tangentMode: 0
        weightedMode: 0
        inWeight: {x: 0.33333334, y: 0.33333334, z: 0.33333334}
        outWeight: {x: 0.33333334, y: 0.33333334, z: 0.33333334}
      m_PreInfinity: 2
      m_PostInfinity: 2
      m_RotationOrder: 4
    path: MonsterArmature
  - curve:
      serializedVersion: 2
      m_Curve:
      - serializedVersion: 3
        time: 0
        value: {x: -0, y: 0, z: 0}
        inSlope: {x: -2.4349515e-18, y: 0.0005169323, z: 0.00008285536}
        outSlope: {x: -2.4349515e-18, y: 0.0005169323, z: 0.00008285536}
        tangentMode: 0
        weightedMode: 0
        inWeight: {x: 0.33333334, y: 0.33333334, z: 0.33333334}
        outWeight: {x: 0.33333334, y: 0.33333334, z: 0.33333334}
      - serializedVersion: 3
        time: 0.041666668
        value: {x: -1.0145631e-19, y: 0.000021538846, z: 0.000003452307}
        inSlope: {x: -2.4349515e-18, y: 0.0005169323, z: 0.00008285536}
        outSlope: {x: -2.4349515e-18, y: 0.0018283456, z: 0.00029647836}
        tangentMode: 0
        weightedMode: 0
        inWeight: {x: 0.33333334, y: 0.33333334, z: 0.33333334}
        outWeight: {x: 0.33333334, y: 0.33333334, z: 0.33333334}
      - serializedVersion: 3
        time: 0.083333336
        value: {x: -2.0291263e-19, y: 0.000097719916, z: 0.000015805572}
        inSlope: {x: -2.4349515e-18, y: 0.0018283456, z: 0.00029647836}
        outSlope: {x: -2.4349517e-18, y: 0.0038532966, z: 0.00063703395}
        tangentMode: 0
        weightedMode: 0
        inWeight: {x: 0.33333334, y: 0.33333334, z: 0.33333334}
        outWeight: {x: 0.33333334, y: 0.33333334, z: 0.33333334}
      - serializedVersion: 3
        time: 0.125
        value: {x: -3.0436894e-19, y: 0.0002582739, z: 0.000042348653}
        inSlope: {x: -2.4349517e-18, y: 0.0038532966, z: 0.00063703395}
        outSlope: {x: -2.4349513e-18, y: 0.0076888227, z: 0.0013214175}
        tangentMode: 0
        weightedMode: 0
        inWeight: {x: 0.33333334, y: 0.33333334, z: 0.33333334}
        outWeight: {x: 0.33333334, y: 0.33333334, z: 0.33333334}
      - serializedVersion: 3
        time: 0.16666667
        value: {x: -4.0582525e-19, y: 0.0005786416, z: 0.00009740773}
        inSlope: {x: -2.4349513e-18, y: 0.0076888227, z: 0.0013214175}
        outSlope: {x: -2.4349521e-18, y: 0.015870301, z: 0.003562436}
        tangentMode: 0
        weightedMode: 0
        inWeight: {x: 0.33333334, y: 0.33333334, z: 0.33333334}
        outWeight: {x: 0.33333334, y: 0.33333334, z: 0.33333334}
      - serializedVersion: 3
        time: 0.20833333
        value: {x: -5.072816e-19, y: 0.001239904, z: 0.00024584253}
        inSlope: {x: -2.4349521e-18, y: 0.015870301, z: 0.003562436}
        outSlope: {x: -2.4349513e-18, y: -0.047548525, z: 0.0098241}
        tangentMode: 0
        weightedMode: 0
        inWeight: {x: 0.33333334, y: 0.33333334, z: 0.33333334}
        outWeight: {x: 0.33333334, y: 0.33333334, z: 0.33333334}
      - serializedVersion: 3
        time: 0.25
        value: {x: -6.087379e-19, y: -0.00074128486, z: 0.0006551801}
        inSlope: {x: -2.4349513e-18, y: -0.047548525, z: 0.0098241}
        outSlope: {x: -2.4349513e-18, y: -0.053691562, z: 0.01852766}
        tangentMode: 0
        weightedMode: 0
        inWeight: {x: 0.33333334, y: 0.33333334, z: 0.33333334}
        outWeight: {x: 0.33333334, y: 0.33333334, z: 0.33333334}
      - serializedVersion: 3
        time: 0.29166666
        value: {x: -7.1019416e-19, y: -0.0029784327, z: 0.0014271657}
        inSlope: {x: -2.4349513e-18, y: -0.053691562, z: 0.01852766}
        outSlope: {x: -2.4349528e-18, y: -0.009009078, z: 0.023442173}
        tangentMode: 0
        weightedMode: 0
        inWeight: {x: 0.33333334, y: 0.33333334, z: 0.33333334}
        outWeight: {x: 0.33333334, y: 0.33333334, z: 0.33333334}
      - serializedVersion: 3
        time: 0.33333334
        value: {x: -8.1165056e-19, y: -0.003353811, z: 0.0024039233}
        inSlope: {x: -2.4349528e-18, y: -0.009009078, z: 0.023442173}
        outSlope: {x: -2.4349513e-18, y: -0.005324622, z: 0.03021873}
        tangentMode: 0
        weightedMode: 0
        inWeight: {x: 0.33333334, y: 0.33333334, z: 0.33333334}
        outWeight: {x: 0.33333334, y: 0.33333334, z: 0.33333334}
      - serializedVersion: 3
        time: 0.375
        value: {x: -9.131069e-19, y: -0.0035756703, z: 0.0036630367}
        inSlope: {x: -2.4349513e-18, y: -0.005324622, z: 0.03021873}
        outSlope: {x: -2.4349513e-18, y: -0.0018386798, z: 0.024275297}
        tangentMode: 0
        weightedMode: 0
        inWeight: {x: 0.33333334, y: 0.33333334, z: 0.33333334}
        outWeight: {x: 0.33333334, y: 0.33333334, z: 0.33333334}
      - serializedVersion: 3
        time: 0.41666666
        value: {x: -1.0145632e-18, y: -0.003652282, z: 0.0046745073}
        inSlope: {x: -2.4349513e-18, y: -0.0018386798, z: 0.024275297}
        outSlope: {x: -2.4349513e-18, y: -0.00020899763, z: 0.008438339}
        tangentMode: 0
        weightedMode: 0
        inWeight: {x: 0.33333334, y: 0.33333334, z: 0.33333334}
        outWeight: {x: 0.33333334, y: 0.33333334, z: 0.33333334}
      - serializedVersion: 3
        time: 0.45833334
        value: {x: -1.1160195e-18, y: -0.0036609902, z: 0.005026105}
        inSlope: {x: -2.4349513e-18, y: -0.00020899763, z: 0.008438339}
        outSlope: {x: -2.4349513e-18, y: -0.00020899763, z: 0.008438339}
        tangentMode: 0
        weightedMode: 0
        inWeight: {x: 0.33333334, y: 0.33333334, z: 0.33333334}
        outWeight: {x: 0.33333334, y: 0.33333334, z: 0.33333334}
      m_PreInfinity: 2
      m_PostInfinity: 2
      m_RotationOrder: 4
    path: MonsterArmature/Body
  - curve:
      serializedVersion: 2
      m_Curve:
      - serializedVersion: 3
        time: 0
        value: {x: 7.803066e-20, y: 0.0008982527, z: 0.005008285}
        inSlope: {x: 0, y: 0, z: 0}
        outSlope: {x: 0, y: 0, z: 0}
        tangentMode: 0
        weightedMode: 0
        inWeight: {x: 0.33333334, y: 0.33333334, z: 0.33333334}
        outWeight: {x: 0.33333334, y: 0.33333334, z: 0.33333334}
      - serializedVersion: 3
        time: 0.45833334
        value: {x: 7.803066e-20, y: 0.0008982527, z: 0.005008285}
        inSlope: {x: 0, y: 0, z: 0}
        outSlope: {x: 0, y: 0, z: 0}
        tangentMode: 0
        weightedMode: 0
        inWeight: {x: 0.33333334, y: 0.33333334, z: 0.33333334}
        outWeight: {x: 0.33333334, y: 0.33333334, z: 0.33333334}
      m_PreInfinity: 2
      m_PostInfinity: 2
      m_RotationOrder: 4
    path: MonsterArmature/Body/Mouth
  - curve:
      serializedVersion: 2
      m_Curve:
      - serializedVersion: 3
        time: 0
        value: {x: -0, y: 0, z: 0.0048319353}
        inSlope: {x: -5.7116144e-19, y: -0.00034782855, z: 0.00020869731}
        outSlope: {x: -5.7116144e-19, y: -0.00034782855, z: 0.00020869731}
        tangentMode: 0
        weightedMode: 0
        inWeight: {x: 0.33333334, y: 0.33333334, z: 0.33333334}
        outWeight: {x: 0.33333334, y: 0.33333334, z: 0.33333334}
      - serializedVersion: 3
        time: 0.041666668
        value: {x: -2.3798395e-20, y: -0.000014492857, z: 0.0048406306}
        inSlope: {x: -5.7116144e-19, y: -0.00034782855, z: 0.00020869731}
        outSlope: {x: -5.7116144e-19, y: -0.001488129, z: 0.0008928752}
        tangentMode: 0
        weightedMode: 0
        inWeight: {x: 0.33333334, y: 0.33333334, z: 0.33333334}
        outWeight: {x: 0.33333334, y: 0.33333334, z: 0.33333334}
      - serializedVersion: 3
        time: 0.083333336
        value: {x: -4.759679e-20, y: -0.00007649824, z: 0.004877834}
        inSlope: {x: -5.7116144e-19, y: -0.001488129, z: 0.0008928752}
        outSlope: {x: -5.7116144e-19, y: -0.004592143, z: 0.0027552869}
        tangentMode: 0
        weightedMode: 0
        inWeight: {x: 0.33333334, y: 0.33333334, z: 0.33333334}
        outWeight: {x: 0.33333334, y: 0.33333334, z: 0.33333334}
      - serializedVersion: 3
        time: 0.125
        value: {x: -7.139518e-20, y: -0.00026783752, z: 0.0049926373}
        inSlope: {x: -5.7116144e-19, y: -0.004592143, z: 0.0027552869}
        outSlope: {x: -5.711615e-19, y: 0.00041362207, z: -0.0006818818}
        tangentMode: 0
        weightedMode: 0
        inWeight: {x: 0.33333334, y: 0.33333334, z: 0.33333334}
        outWeight: {x: 0.33333334, y: 0.33333334, z: 0.33333334}
      - serializedVersion: 3
        time: 0.16666667
        value: {x: -9.519358e-20, y: -0.00025060328, z: 0.004964226}
        inSlope: {x: -5.711615e-19, y: 0.00041362207, z: -0.0006818818}
        outSlope: {x: -5.711615e-19, y: 0.0013547237, z: -0.001246548}
        tangentMode: 0
        weightedMode: 0
        inWeight: {x: 0.33333334, y: 0.33333334, z: 0.33333334}
        outWeight: {x: 0.33333334, y: 0.33333334, z: 0.33333334}
      - serializedVersion: 3
        time: 0.20833333
        value: {x: -1.1899197e-19, y: -0.00019415647, z: 0.004912286}
        inSlope: {x: -5.711615e-19, y: 0.0013547237, z: -0.001246548}
        outSlope: {x: -5.7116134e-19, y: 0.0019717473, z: -0.0012465476}
        tangentMode: 0
        weightedMode: 0
        inWeight: {x: 0.33333334, y: 0.33333334, z: 0.33333334}
        outWeight: {x: 0.33333334, y: 0.33333334, z: 0.33333334}
      - serializedVersion: 3
        time: 0.25
        value: {x: -1.4279036e-19, y: -0.00011200032, z: 0.0048603467}
        inSlope: {x: -5.7116134e-19, y: 0.0019717473, z: -0.0012465476}
        outSlope: {x: -5.711617e-19, y: 0.0026880081, z: -0.000681882}
        tangentMode: 0
        weightedMode: 0
        inWeight: {x: 0.33333334, y: 0.33333334, z: 0.33333334}
        outWeight: {x: 0.33333334, y: 0.33333334, z: 0.33333334}
      - serializedVersion: 3
        time: 0.29166666
        value: {x: -1.6658876e-19, y: 0, z: 0.0048319353}
        inSlope: {x: -5.711617e-19, y: 0.0026880081, z: -0.000681882}
        outSlope: {x: -5.7116134e-19, y: 0.0036615878, z: 0.003912769}
        tangentMode: 0
        weightedMode: 0
        inWeight: {x: 0.33333334, y: 0.33333334, z: 0.33333334}
        outWeight: {x: 0.33333334, y: 0.33333334, z: 0.33333334}
      - serializedVersion: 3
        time: 0.33333334
        value: {x: -1.9038716e-19, y: 0.00015256622, z: 0.004994967}
        inSlope: {x: -5.7116134e-19, y: 0.0036615878, z: 0.003912769}
        outSlope: {x: -5.711617e-19, y: 0.004656464, z: 0.01023479}
        tangentMode: 0
        weightedMode: 0
        inWeight: {x: 0.33333334, y: 0.33333334, z: 0.33333334}
        outWeight: {x: 0.33333334, y: 0.33333334, z: 0.33333334}
      - serializedVersion: 3
        time: 0.375
        value: {x: -2.1418556e-19, y: 0.0003465855, z: 0.005421417}
        inSlope: {x: -5.711617e-19, y: 0.004656464, z: 0.01023479}
        outSlope: {x: -5.7116134e-19, y: 0.003715969, z: 0.0102347685}
        tangentMode: 0
        weightedMode: 0
        inWeight: {x: 0.33333334, y: 0.33333334, z: 0.33333334}
        outWeight: {x: 0.33333334, y: 0.33333334, z: 0.33333334}
      - serializedVersion: 3
        time: 0.41666666
        value: {x: -2.3798395e-19, y: 0.0005014175, z: 0.0058478652}
        inSlope: {x: -5.7116134e-19, y: 0.003715969, z: 0.0102347685}
        outSlope: {x: -5.7116134e-19, y: 0.0012873595, z: 0.00391279}
        tangentMode: 0
        weightedMode: 0
        inWeight: {x: 0.33333334, y: 0.33333334, z: 0.33333334}
        outWeight: {x: 0.33333334, y: 0.33333334, z: 0.33333334}
      - serializedVersion: 3
        time: 0.45833334
        value: {x: -2.6178235e-19, y: 0.0005550575, z: 0.0060108984}
        inSlope: {x: -5.7116134e-19, y: 0.0012873595, z: 0.00391279}
        outSlope: {x: -5.7116134e-19, y: 0.0012873595, z: 0.00391279}
        tangentMode: 0
        weightedMode: 0
        inWeight: {x: 0.33333334, y: 0.33333334, z: 0.33333334}
        outWeight: {x: 0.33333334, y: 0.33333334, z: 0.33333334}
      m_PreInfinity: 2
      m_PostInfinity: 2
      m_RotationOrder: 4
    path: MonsterArmature/Head
  - curve:
      serializedVersion: 2
      m_Curve:
      - serializedVersion: 3
        time: 0
        value: {x: -0, y: 0.005165857, z: 0}
        inSlope: {x: 0, y: 0, z: 0}
        outSlope: {x: 0, y: 0, z: 0}
        tangentMode: 0
        weightedMode: 0
        inWeight: {x: 0.33333334, y: 0.33333334, z: 0.33333334}
        outWeight: {x: 0.33333334, y: 0.33333334, z: 0.33333334}
      - serializedVersion: 3
        time: 0.45833334
        value: {x: -0, y: 0.005165857, z: 0}
        inSlope: {x: 0, y: 0, z: 0}
        outSlope: {x: 0, y: 0, z: 0}
        tangentMode: 0
        weightedMode: 0
        inWeight: {x: 0.33333334, y: 0.33333334, z: 0.33333334}
        outWeight: {x: 0.33333334, y: 0.33333334, z: 0.33333334}
      m_PreInfinity: 2
      m_PostInfinity: 2
      m_RotationOrder: 4
    path: MonsterArmature/Head/Head2
  - curve:
      serializedVersion: 2
      m_Curve:
      - serializedVersion: 3
        time: 0
        value: {x: -0, y: 0.0039007496, z: 0}
        inSlope: {x: 0, y: 0, z: 0}
        outSlope: {x: 0, y: 0, z: 0}
        tangentMode: 0
        weightedMode: 0
        inWeight: {x: 0.33333334, y: 0.33333334, z: 0.33333334}
        outWeight: {x: 0.33333334, y: 0.33333334, z: 0.33333334}
      - serializedVersion: 3
        time: 0.45833334
        value: {x: -0, y: 0.0039007496, z: 0}
        inSlope: {x: 0, y: 0, z: 0}
        outSlope: {x: 0, y: 0, z: 0}
        tangentMode: 0
        weightedMode: 0
        inWeight: {x: 0.33333334, y: 0.33333334, z: 0.33333334}
        outWeight: {x: 0.33333334, y: 0.33333334, z: 0.33333334}
      m_PreInfinity: 2
      m_PostInfinity: 2
      m_RotationOrder: 4
    path: MonsterArmature/Head/Head2/Head3
  - curve:
      serializedVersion: 2
      m_Curve:
      - serializedVersion: 3
        time: 0
        value: {x: 0.0043069767, y: 0.0047566285, z: 0.0050621224}
        inSlope: {x: -0, y: 0.0007149625, z: -0.00012541293}
        outSlope: {x: -0, y: 0.0007149625, z: -0.00012541293}
        tangentMode: 0
        weightedMode: 0
        inWeight: {x: 0.33333334, y: 0.33333334, z: 0.33333334}
        outWeight: {x: 0.33333334, y: 0.33333334, z: 0.33333334}
      - serializedVersion: 3
        time: 0.083333336
        value: {x: 0.0043069767, y: 0.004893261, z: 0.005051671}
        inSlope: {x: -0, y: 0.002564206, z: -0.00012541293}
        outSlope: {x: -0, y: 0.0055160457, z: -0.000421958}
        tangentMode: 0
        weightedMode: 0
        inWeight: {x: 0.33333334, y: 0.33333334, z: 0.33333334}
        outWeight: {x: 0.33333334, y: 0.33333334, z: 0.33333334}
      - serializedVersion: 3
        time: 0.125
        value: {x: 0.0043069767, y: 0.005123096, z: 0.0050340896}
        inSlope: {x: -0, y: 0.0055160457, z: -0.000421958}
        outSlope: {x: -0, y: 0.011207698, z: -0.00085729826}
        tangentMode: 0
        weightedMode: 0
        inWeight: {x: 0.33333334, y: 0.33333334, z: 0.33333334}
        outWeight: {x: 0.33333334, y: 0.33333334, z: 0.33333334}
      - serializedVersion: 3
        time: 0.16666667
        value: {x: 0.0043069767, y: 0.0055900835, z: 0.0049983687}
        inSlope: {x: -0, y: 0.011207698, z: -0.00085729826}
        outSlope: {x: -0, y: 0.015189803, z: -0.0011619404}
        tangentMode: 0
        weightedMode: 0
        inWeight: {x: 0.33333334, y: 0.33333334, z: 0.33333334}
        outWeight: {x: 0.33333334, y: 0.33333334, z: 0.33333334}
      - serializedVersion: 3
        time: 0.20833333
        value: {x: 0.0043069767, y: 0.0062229917, z: 0.004949955}
        inSlope: {x: -0, y: 0.015189803, z: -0.0011619404}
        outSlope: {x: -0, y: -0, z: -0}
        tangentMode: 0
        weightedMode: 0
        inWeight: {x: 0.33333334, y: 0.33333334, z: 0.33333334}
        outWeight: {x: 0.33333334, y: 0.33333334, z: 0.33333334}
      - serializedVersion: 3
        time: 0.45833334
        value: {x: 0.0043069767, y: 0.0062229917, z: 0.004949955}
        inSlope: {x: -0, y: -0, z: -0}
        outSlope: {x: -0, y: -0, z: -0}
        tangentMode: 0
        weightedMode: 0
        inWeight: {x: 0.33333334, y: 0.33333334, z: 0.33333334}
        outWeight: {x: 0.33333334, y: 0.33333334, z: 0.33333334}
      m_PreInfinity: 2
      m_PostInfinity: 2
      m_RotationOrder: 4
    path: MonsterArmature/Head/Eyebrow.R
  - curve:
      serializedVersion: 2
      m_Curve:
      - serializedVersion: 3
        time: 0
        value: {x: -0.0043069767, y: 0.0047566285, z: 0.0050621224}
        inSlope: {x: -0, y: 0.0007149625, z: -0.00012539863}
        outSlope: {x: -0, y: 0.0007149625, z: -0.00012539863}
        tangentMode: 0
        weightedMode: 0
        inWeight: {x: 0.33333334, y: 0.33333334, z: 0.33333334}
        outWeight: {x: 0.33333334, y: 0.33333334, z: 0.33333334}
      - serializedVersion: 3
        time: 0.083333336
        value: {x: -0.0043069767, y: 0.0048932615, z: 0.0050516715}
        inSlope: {x: -0, y: 0.0025642274, z: -0.00012541293}
        outSlope: {x: -0, y: 0.0055160383, z: -0.0004219723}
        tangentMode: 0
        weightedMode: 0
        inWeight: {x: 0.33333334, y: 0.33333334, z: 0.33333334}
        outWeight: {x: 0.33333334, y: 0.33333334, z: 0.33333334}
      - serializedVersion: 3
        time: 0.125
        value: {x: -0.0043069767, y: 0.0051230965, z: 0.0050340896}
        inSlope: {x: -0, y: 0.0055160383, z: -0.0004219723}
        outSlope: {x: -0, y: 0.011207698, z: -0.0008572911}
        tangentMode: 0
        weightedMode: 0
        inWeight: {x: 0.33333334, y: 0.33333334, z: 0.33333334}
        outWeight: {x: 0.33333334, y: 0.33333334, z: 0.33333334}
      - serializedVersion: 3
        time: 0.16666667
        value: {x: -0.0043069767, y: 0.005590084, z: 0.004998369}
        inSlope: {x: -0, y: 0.011207698, z: -0.0008572911}
        outSlope: {x: -0, y: 0.015189775, z: -0.0011619547}
        tangentMode: 0
        weightedMode: 0
        inWeight: {x: 0.33333334, y: 0.33333334, z: 0.33333334}
        outWeight: {x: 0.33333334, y: 0.33333334, z: 0.33333334}
      - serializedVersion: 3
        time: 0.20833333
        value: {x: -0.0043069767, y: 0.0062229913, z: 0.0049499543}
        inSlope: {x: -0, y: 0.015189775, z: -0.0011619547}
        outSlope: {x: -0, y: -0, z: -0}
        tangentMode: 0
        weightedMode: 0
        inWeight: {x: 0.33333334, y: 0.33333334, z: 0.33333334}
        outWeight: {x: 0.33333334, y: 0.33333334, z: 0.33333334}
      - serializedVersion: 3
        time: 0.45833334
        value: {x: -0.0043069767, y: 0.0062229917, z: 0.004949955}
        inSlope: {x: -0, y: -0, z: -0}
        outSlope: {x: -0, y: -0, z: -0}
        tangentMode: 0
        weightedMode: 0
        inWeight: {x: 0.33333334, y: 0.33333334, z: 0.33333334}
        outWeight: {x: 0.33333334, y: 0.33333334, z: 0.33333334}
      m_PreInfinity: 2
      m_PostInfinity: 2
      m_RotationOrder: 4
    path: MonsterArmature/Head/Eyebrow.L
  m_ScaleCurves:
  - curve:
      serializedVersion: 2
      m_Curve:
      - serializedVersion: 3
        time: 0
        value: {x: 1, y: 1, z: 1}
        inSlope: {x: 0, y: 0, z: 0}
        outSlope: {x: 0, y: 0, z: 0}
        tangentMode: 0
        weightedMode: 0
        inWeight: {x: 0.33333334, y: 0.33333334, z: 0.33333334}
        outWeight: {x: 0.33333334, y: 0.33333334, z: 0.33333334}
      - serializedVersion: 3
        time: 0.45833334
        value: {x: 1, y: 1, z: 1}
        inSlope: {x: 0, y: 0, z: 0}
        outSlope: {x: 0, y: 0, z: 0}
        tangentMode: 0
        weightedMode: 0
        inWeight: {x: 0.33333334, y: 0.33333334, z: 0.33333334}
        outWeight: {x: 0.33333334, y: 0.33333334, z: 0.33333334}
      m_PreInfinity: 2
      m_PostInfinity: 2
      m_RotationOrder: 4
    path: MonsterArmature/Body
  - curve:
      serializedVersion: 2
      m_Curve:
      - serializedVersion: 3
        time: 0
        value: {x: 1, y: 1, z: 1}
        inSlope: {x: 0, y: 0, z: 0}
        outSlope: {x: 0, y: 0, z: 0}
        tangentMode: 0
        weightedMode: 0
        inWeight: {x: 0.33333334, y: 0.33333334, z: 0.33333334}
        outWeight: {x: 0.33333334, y: 0.33333334, z: 0.33333334}
      - serializedVersion: 3
        time: 0.45833334
        value: {x: 1, y: 1, z: 1}
        inSlope: {x: 0, y: 0, z: 0}
        outSlope: {x: 0, y: 0, z: 0}
        tangentMode: 0
        weightedMode: 0
        inWeight: {x: 0.33333334, y: 0.33333334, z: 0.33333334}
        outWeight: {x: 0.33333334, y: 0.33333334, z: 0.33333334}
      m_PreInfinity: 2
      m_PostInfinity: 2
      m_RotationOrder: 4
    path: MonsterArmature/Head/Head2/Head3
  m_FloatCurves: []
  m_PPtrCurves: []
  m_SampleRate: 24
  m_WrapMode: 0
  m_Bounds:
    m_Center: {x: 0, y: 0, z: 0}
    m_Extent: {x: 0, y: 0, z: 0}
  m_ClipBindingConstant:
    genericBindings: []
    pptrCurveMapping: []
  m_AnimationClipSettings:
    serializedVersion: 2
    m_AdditiveReferencePoseClip: {fileID: 0}
    m_AdditiveReferencePoseTime: 0
    m_StartTime: 0
    m_StopTime: 0.45833334
    m_OrientationOffsetY: 0
    m_Level: 0
    m_CycleOffset: 0
    m_HasAdditiveReferencePose: 0
    m_LoopTime: 0
    m_LoopBlend: 0
    m_LoopBlendOrientation: 0
    m_LoopBlendPositionY: 0
    m_LoopBlendPositionXZ: 0
    m_KeepOriginalOrientation: 0
    m_KeepOriginalPositionY: 1
    m_KeepOriginalPositionXZ: 0
    m_HeightFromFeet: 0
    m_Mirror: 0
  m_EditorCurves: []
  m_EulerEditorCurves: []
  m_HasGenericRootTransform: 0
  m_HasMotionFloatCurves: 0
  m_Events: []
