%YAML 1.1
%TAG !u! tag:unity3d.com,2011:
--- !u!1045 &1
EditorBuildSettings:
  m_ObjectHideFlags: 0
  serializedVersion: 2
  m_Scenes:
  - enabled: 1
    path: Assets/Scenes/main menu.unity
    guid: a24e26583c0a4444a8a6af7a6266a411
  - enabled: 1
    path: Assets/Scenes/Level 1.unity
    guid: b2e26f9a50b5ed7418574ee0fff295a4
  - enabled: 1
    path: Assets/Scenes/Level 2.unity
    guid: 26dd4d43e860e6741adafda5aad34205
  - enabled: 1
    path: Assets/Scenes/EndScene.unity
    guid: b547f9b091f14fd4289d4ff23e69f85c
  m_configObjects: {}
